{
  "name": "LiteNews",
  "app_id": "",
  "type": "ionic-angular",
  "proxies": [
    {
      "path": "/news-static",
      "proxyUrl": "http://127.0.0.1:9801/news-static"
    },
    {
      "path": "/user/login",
      "proxyUrl": "http://127.0.0.1:9805/user/login"
    },
    {
      "path": "/user/register",
      "proxyUrl": "http://127.0.0.1:9805/user/register"
    },
    {
      "path": "/news/refresh",
      "proxyUrl": "http://127.0.0.1:9805/news/refresh"
    },
    {
      "path": "/news/rate",
      "proxyUrl": "http://127.0.0.1:9805/news/rate"
    },
    {
      "path": "/comment/publish",
      "proxyUrl": "http://127.0.0.1:9805/comment/publish"
    },
    {
      "path": "/comment/refresh",
      "proxyUrl": "http://127.0.0.1:9805/comment/refresh"
    },
    {
      "path": "/reply/refresh",
      "proxyUrl": "http://127.0.0.1:9805/reply/refresh"
    },
    {
      "path": "/vote",
      "proxyUrl": "http://127.0.0.1:9805/vote"
    },
    {
      "path": "/source-image",
      "proxyUrl": "http://127.0.0.1:9801/source-image"
    },
    {
      "path": "/photos",
      "proxyUrl": "http://127.0.0.1:9801/photos"
    },
    {
      "path": "/user/photo/upload",
      "proxyUrl": "http://127.0.0.1:9805/user/photo/upload"
    },
    {
      "path": "/user/info/update",
      "proxyUrl": "http://127.0.0.1:9805/user/info/update"
    },
    {
      "path": "/report",
      "proxyUrl": "http://127.0.0.1:9805/report"
    }
  ]
}
